<svg width="100" height="30" viewBox="0 0 100 30" fill="none" xmlns="http://www.w3.org/2000/svg">
<g clip-path="url(#clip0_277_9791)">
<path d="M22 15C24.21 15 26 13.21 26 11C26 8.79 24.21 7 22 7C19.79 7 18 8.79 18 11C18 13.21 19.79 15 22 15ZM22 17C19.33 17 14 18.34 14 21V23H30V21C30 18.34 24.67 17 22 17Z" fill="#E74A3B"/>
</g>
<defs>
<clipPath id="clip0_277_9791">
<rect width="24" height="24" fill="white" transform="translate(10 3)"/>
</clipPath>
</defs>
</svg>
