<svg width="24" height="24" viewBox="0 0 24 24" fill="none" xmlns="http://www.w3.org/2000/svg">
<g clip-path="url(#clip0_277_10030)">
<path d="M5.58997 7.41L10.18 12L5.58997 16.59L6.99997 18L13 12L6.99997 6L5.58997 7.41ZM16 6H18V18H16V6Z" fill="#285D9A"/>
</g>
<defs>
<clipPath id="clip0_277_10030">
<rect width="24" height="24" fill="white"/>
</clipPath>
</defs>
</svg>
