<svg width="24" height="24" viewBox="0 0 24 24" fill="none" xmlns="http://www.w3.org/2000/svg">
<g id="seminar/workshop" clip-path="url(#clip0_22_294)">
<path id="Vector" d="M12 5C8.13 5 5 8.13 5 12H7C7 9.24 9.24 7 12 7C14.76 7 17 9.24 17 12H19C19 8.13 15.87 5 12 5ZM13 14.29C13.88 13.9 14.5 13.03 14.5 12C14.5 10.62 13.38 9.5 12 9.5C10.62 9.5 9.5 10.62 9.5 12C9.5 13.02 10.12 13.9 11 14.29V17.59L7.59 21L9 22.41L12 19.41L15 22.41L16.41 21L13 17.59V14.29ZM12 1C5.93 1 1 5.93 1 12H3C3 7.03 7.03 3 12 3C16.97 3 21 7.03 21 12H23C23 5.93 18.07 1 12 1Z" fill="#285D9A"/>
</g>
<defs>
<clipPath id="clip0_22_294">
<rect width="24" height="24" fill="white"/>
</clipPath>
</defs>
</svg>
